\relax 
\catcode `"\active 
\select@language{ngerman}
\@writefile{toc}{\select@language{ngerman}}
\@writefile{lof}{\select@language{ngerman}}
\@writefile{lot}{\select@language{ngerman}}
\@writefile{toc}{\contentsline {section}{\numberline {1}\IeC {\"U}ber das Projekt selbst}{3}}
\@writefile{toc}{\contentsline {subsection}{\numberline {1.1}Das Orginalspiel}{3}}
\@writefile{toc}{\contentsline {subsection}{\numberline {1.2}Wie das Projekt werden soll}{3}}
\@writefile{toc}{\contentsline {section}{\numberline {2}Anhang}{4}}
\@writefile{toc}{\contentsline {subsection}{\numberline {2.1}Colorpicking}{4}}
