\select@language {ngerman}
\contentsline {section}{\numberline {1}\IeC {\"U}ber das Projekt selbst}{3}
\contentsline {subsection}{\numberline {1.1}Das Orginalspiel}{3}
\contentsline {subsection}{\numberline {1.2}Wie das Projekt werden soll}{3}
\contentsline {section}{\numberline {2}Anhang}{4}
\contentsline {subsection}{\numberline {2.1}Colorpicking}{4}
