# Blender v2.66 (sub 1) OBJ File: ''
# www.blender.org
o Cube
v 0.500000 -0.100000 -0.300000
v 0.500000 -0.100000 0.300000
v -0.500000 -0.100000 0.300000
v -0.500000 -0.100000 -0.300000
v 0.500000 0.100000 -0.300000
v 0.500000 0.100000 0.300000
v -0.500000 0.100000 0.300000
v -0.500000 0.100000 -0.300000
vt 0.500000 0.499999
vt 0.500000 0.749956
vt 0.250043 0.749957
vt 0.250043 0.499999
vt 0.500000 0.250043
vt 0.250043 0.250043
vt 0.250044 0.000087
vt 0.500000 0.000087
vt 0.749956 0.250042
vt 0.749957 0.499999
vt 0.500000 0.999913
vt 0.250043 0.999913
vt 0.000087 0.499999
vt 0.000087 0.250043
s off
f 1/1 2/2 3/3 4/4
f 5/5 8/6 7/7 6/8
f 1/1 5/5 6/9 2/10
f 2/2 6/11 7/12 3/3
f 3/13 7/14 8/6 4/4
f 5/5 1/1 4/4 8/6
